%YAML 1.1
%TAG !u! tag:unity3d.com,2011:
--- !u!114 &11400000
MonoBehaviour:
  m_ObjectHideFlags: 0
  m_CorrespondingSourceObject: {fileID: 0}
  m_PrefabInstance: {fileID: 0}
  m_PrefabAsset: {fileID: 0}
  m_GameObject: {fileID: 0}
  m_Enabled: 1
  m_EditorHideFlags: 0
  m_Script: {fileID: 11500000, guid: 91037ecede52fda4e9400ec76d566e6f, type: 3}
  m_Name: back_01
  m_EditorClassIdentifier: 
  itemGameObject: {fileID: 908945565610020533, guid: c56bb4a5976a83146937a6724cb75c83,
    type: 3}
  itemPrice: 450
