%YAML 1.1
%TAG !u! tag:unity3d.com,2011:
--- !u!114 &11400000
MonoBehaviour:
  m_ObjectHideFlags: 0
  m_CorrespondingSourceObject: {fileID: 0}
  m_PrefabInstance: {fileID: 0}
  m_PrefabAsset: {fileID: 0}
  m_GameObject: {fileID: 0}
  m_Enabled: 1
  m_EditorHideFlags: 0
  m_Script: {fileID: 11500000, guid: 91037ecede52fda4e9400ec76d566e6f, type: 3}
  m_Name: front_01
  m_EditorClassIdentifier: 
  itemGameObject: {fileID: 7410315556515249386, guid: fcf3141734221ab4a8aac23ed0428cb6,
    type: 3}
  itemPrice: 50
