%YAML 1.1
%TAG !u! tag:unity3d.com,2011:
--- !u!114 &11400000
MonoBehaviour:
  m_ObjectHideFlags: 0
  m_CorrespondingSourceObject: {fileID: 0}
  m_PrefabInstance: {fileID: 0}
  m_PrefabAsset: {fileID: 0}
  m_GameObject: {fileID: 0}
  m_Enabled: 1
  m_EditorHideFlags: 0
  m_Script: {fileID: 11500000, guid: 91037ecede52fda4e9400ec76d566e6f, type: 3}
  m_Name: middle_05
  m_EditorClassIdentifier: 
  itemGameObject: {fileID: 7847023418668982863, guid: 41ca3d4dbd220f24c9816e30ec9e0593,
    type: 3}
  itemPrice: 300
